velj 06, 2023 9:03:12 PM com.example.loginprozor.MobHandler <init>
INFO: Logger initialised
velj 06, 2023 9:03:12 PM com.example.loginprozor.MobHandler <init>
INFO: Database init!
velj 06, 2023 9:03:16 PM com.example.loginprozor.MobHandler <init>
INFO: Logger initialised
velj 06, 2023 9:03:16 PM com.example.loginprozor.MobHandler <init>
INFO: Database init!
