sij 28, 2023 1:22:41 PM Models.Database.PensionerDatabase <init>
INFO: Logger initialised
sij 28, 2023 1:22:41 PM Models.Database.PensionerDatabase <init>
INFO: Database init!
sij 28, 2023 1:22:41 PM Models.Database.PensionerDatabase getAllPensioners
WARNING: GetAllPensioners have been called!
