sij 28, 2023 1:22:41 PM Models.Database.StudentDatabase <init>
INFO: Logger initialised
sij 28, 2023 1:22:41 PM Models.Database.StudentDatabase <init>
INFO: Database init!
sij 28, 2023 1:22:41 PM Models.Database.StudentDatabase getAllStudents
WARNING: GetAllPensioners have been called!
