sij 28, 2023 1:22:41 PM Models.Database.WorkerDatabase <init>
INFO: Logger initialised
sij 28, 2023 1:22:41 PM Models.Database.WorkerDatabase <init>
INFO: Database init!
sij 28, 2023 1:22:41 PM Models.Database.WorkerDatabase getAllWorkers
WARNING: getAllWorkers have been called!
